<svg width="45" height="50" viewBox="0 0 45 50" fill="none" xmlns="http://www.w3.org/2000/svg">
<g clip-path="url(#clip0_126_12233)">
<path style="mix-blend-mode:multiply" d="M4.64526 36.7563C21.2885 38.4061 34.6523 28.5619 37.9859 24.3436C41.3195 20.1252 36.2649 0 36.2649 0C30.7856 13.4606 20.8232 33.8619 4.64526 36.7631V36.7563Z" fill="url(#paint0_linear_126_12233)"/>
<path style="mix-blend-mode:multiply" d="M12.3413 31.3845C22.1586 31.7459 29.6311 25.5726 31.4325 23.0133C33.2338 20.4541 30.4759 8.92737 30.4759 8.92737C27.7476 16.9123 20.1563 28.5474 12.3413 31.3845Z" fill="url(#paint1_linear_126_12233)"/>
<path d="M1.59169 45.4428C1.89529 45.7579 2.25635 46.0141 2.65612 46.1983C3.05284 46.3862 3.48747 46.484 3.92785 46.4844C4.39386 46.5125 4.85521 46.3797 5.23218 46.109C5.53708 45.8717 5.70983 45.5067 5.69801 45.1246C5.70357 44.9387 5.66614 44.754 5.58854 44.5844C5.51741 44.4392 5.41673 44.3098 5.29274 44.2044C5.15699 44.0914 5.00757 43.9953 4.84787 43.9182L4.29818 43.6527L3.08469 43.133C2.87688 43.0434 2.67466 42.9417 2.47911 42.8286C2.27443 42.7118 2.08777 42.5668 1.92476 42.3982C1.75633 42.2221 1.62073 42.0183 1.52415 41.7961C1.30268 41.254 1.3187 40.646 1.5684 40.1158C1.70105 39.8453 1.88988 39.6051 2.12274 39.4108C2.37058 39.2078 2.65502 39.0525 2.96124 38.9529C3.3042 38.84 3.66399 38.7842 4.02567 38.7881C4.50689 38.7849 4.98327 38.8825 5.42317 39.0742C5.83329 39.2511 6.20555 39.5027 6.52021 39.8159L5.94025 40.5027C5.68978 40.2631 5.399 40.0679 5.08078 39.9258C4.74518 39.7825 4.38223 39.7114 4.01636 39.7175C3.60928 39.6975 3.20697 39.811 2.87273 40.0403C2.58653 40.2498 2.42433 40.5849 2.43951 40.9354C2.43397 41.114 2.47655 41.2909 2.56296 41.4482C2.65073 41.5884 2.76544 41.7104 2.90068 41.8076C3.04139 41.9153 3.19278 42.0089 3.35254 42.0869C3.51558 42.1677 3.68328 42.244 3.85564 42.3158L5.05749 42.824C5.29427 42.923 5.52317 43.0393 5.74227 43.1719C5.94896 43.2969 6.13575 43.4512 6.29661 43.6298C6.45539 43.8095 6.58004 44.0157 6.66462 44.2387C6.75933 44.497 6.80511 44.7701 6.79971 45.0445C6.80044 45.3603 6.73213 45.6726 6.5994 45.9602C6.46466 46.2495 6.2685 46.5071 6.0241 46.7157C5.75886 46.9405 5.45203 47.1131 5.12038 47.2239C4.73401 47.3514 4.32838 47.4133 3.92086 47.407C2.80057 47.4163 1.72606 46.9707 0.951172 46.1754L1.59169 45.4428Z" fill="#149CB5"/>
<path d="M7.81233 47.7878V49.8701H6.80005V41.0965H7.6388L7.72556 41.8066H7.76339C8.03577 41.5682 8.33446 41.3637 8.6533 41.1973C8.96776 41.0305 9.31631 40.9433 9.67003 40.943C10.0237 40.9379 10.3738 41.0162 10.6934 41.1721C10.9872 41.3178 11.2416 41.5358 11.4343 41.8066C11.6405 42.1055 11.7914 42.441 11.8793 42.7962C11.9866 43.2209 12.0382 43.6585 12.0328 44.0974C12.0405 44.5743 11.9698 45.049 11.8236 45.5016C11.6993 45.8838 11.5069 46.2388 11.2563 46.5485C11.0309 46.8257 10.7491 47.0486 10.4309 47.2014C10.1225 47.3508 9.78615 47.429 9.44533 47.4305C9.158 47.4287 8.87435 47.3638 8.61326 47.2403C8.3173 47.1007 8.03808 46.9262 7.78118 46.7203L7.81233 47.7878ZM7.81233 45.8956C8.04535 46.1087 8.3126 46.2785 8.60213 46.3973C8.81472 46.4855 9.04054 46.5351 9.26957 46.5439C9.50829 46.546 9.74377 46.487 9.95481 46.3721C10.1683 46.2544 10.3537 46.0893 10.4977 45.8888C10.6611 45.6574 10.7825 45.3973 10.8559 45.1213C10.946 44.7865 10.9894 44.4402 10.9849 44.0928C10.9866 43.7851 10.9576 43.478 10.8981 43.1765C10.8501 42.9216 10.7557 42.6783 10.62 42.4595C10.4955 42.2663 10.3256 42.1087 10.1261 42.0013C9.90263 41.8862 9.65507 41.8296 9.40528 41.8364C9.13523 41.8407 8.87054 41.9147 8.6355 42.0517C8.33598 42.2261 8.05681 42.4351 7.80343 42.6748L7.81233 45.8956Z" fill="#149CB5"/>
<path d="M13.1116 39.7999C12.9097 39.8052 12.7133 39.7384 12.5635 39.6134C12.4216 39.4895 12.3413 39.3172 12.3413 39.1369C12.3413 38.9567 12.4216 38.7844 12.5635 38.6605C12.8814 38.4199 13.3393 38.4199 13.6572 38.6605C13.7997 38.7841 13.8805 38.9565 13.8805 39.1369C13.8805 39.3174 13.7997 39.4898 13.6572 39.6134C13.5081 39.738 13.3127 39.8048 13.1116 39.7999ZM12.544 41.045H13.6524V47.0996H12.544V41.045Z" fill="#149CB5"/>
<path d="M14.4961 41.0906H15.3617L15.4503 41.9561H15.4889C15.7669 41.6801 16.0773 41.4375 16.4136 41.2334C16.757 41.0339 17.1506 40.9334 17.5495 40.9434C18.1962 40.9434 18.6688 41.1412 18.9672 41.5367C19.2655 41.9323 19.417 42.5174 19.4215 43.2921V47.0996H18.3878V43.4282C18.3878 42.8602 18.2954 42.4505 18.1107 42.1992C17.9001 41.936 17.5689 41.7943 17.2292 41.8222C16.9308 41.8166 16.6374 41.8981 16.3863 42.0564C16.0864 42.2592 15.8078 42.4908 15.5548 42.7479V47.0996H14.5211L14.4961 41.0906Z" fill="#149CB5"/>
<path d="M20.0374 41.0907H20.8954L20.9842 41.9561H21.0229C21.3014 41.6801 21.6124 41.4375 21.9493 41.2334C22.2932 41.0338 22.6877 40.9333 23.0873 40.9434C23.7352 40.9434 24.2087 41.1412 24.5076 41.5368C24.8065 41.9323 24.9582 42.5174 24.9628 43.2921V47.0996H23.9067V43.4282C23.9067 42.8602 23.8141 42.4505 23.629 42.1992C23.4181 41.936 23.0862 41.7943 22.7459 41.8223C22.447 41.8166 22.1531 41.8981 21.9015 42.0565C21.601 42.2592 21.3219 42.4908 21.0684 42.7479V47.0996H20.0374V41.0907Z" fill="#149CB5"/>
<path d="M25.5808 45.6566C25.5654 45.0071 25.9258 44.4053 26.5107 44.1037C27.1306 43.7439 28.1078 43.4923 29.4422 43.349C29.4423 43.1577 29.4229 42.9669 29.3841 42.7795C29.3487 42.6031 29.2784 42.4352 29.1772 42.2855C29.0762 42.1405 28.9415 42.0214 28.7843 41.9379C28.5882 41.842 28.3707 41.7963 28.152 41.8052C27.7995 41.8019 27.4503 41.8713 27.1268 42.0088C26.8313 42.1345 26.5487 42.2876 26.2829 42.4662L25.8574 41.7435C26.1971 41.5331 26.555 41.3525 26.9268 41.2037C27.3694 41.0259 27.8437 40.9373 28.3217 40.943C29.0857 40.943 29.6398 41.1717 29.9839 41.6291C30.3522 42.1733 30.5331 42.8195 30.4999 43.4725V47.2529H29.6235L29.5329 46.5188H29.5073C29.2081 46.7627 28.8822 46.9729 28.5355 47.1455C28.1945 47.3174 27.8168 47.4067 27.4336 47.4062C26.9505 47.4233 26.4788 47.2599 26.1132 46.9488C25.7491 46.6174 25.554 46.1438 25.5808 45.6566ZM26.6246 45.5811C26.5956 45.8708 26.7139 46.1559 26.9408 46.3427C27.1683 46.5001 27.4416 46.5804 27.7196 46.5714C28.0187 46.5717 28.3134 46.4994 28.5774 46.361C28.8888 46.1928 29.1771 45.986 29.4352 45.7458V44.0351C28.9882 44.0883 28.5449 44.1685 28.1078 44.2752C27.8043 44.3462 27.5119 44.457 27.2383 44.6046C27.0471 44.7076 26.8868 44.8582 26.7734 45.0414C26.6764 45.2053 26.625 45.3915 26.6246 45.5811Z" fill="#149CB5"/>
<path d="M30.8118 38.1722H31.8598V44.2173H31.8995L34.5768 41.0069H35.7439L33.6432 43.4526L36.0451 47.0995H34.8779L33.0409 44.1584L31.8738 45.4887V47.0928H30.8258L30.8118 38.1722Z" fill="#149CB5"/>
<path d="M35.1223 44.2013C35.1117 43.734 35.1895 43.2689 35.3517 42.8304C35.4936 42.4547 35.7052 42.109 35.9756 41.8113C36.2231 41.5404 36.5236 41.3227 36.8586 41.1715C37.1816 41.023 37.5328 40.9451 37.8885 40.9431C38.2483 40.9376 38.6053 41.0068 38.9368 41.1464C39.2384 41.2758 39.5043 41.4757 39.7121 41.729C39.9291 42 40.0911 42.3104 40.1891 42.643C40.3038 43.0293 40.3594 43.4306 40.3543 43.8334C40.3565 44.0238 40.3435 44.214 40.3153 44.4023H36.1591C36.1681 44.9866 36.387 45.5484 36.7761 45.9858C37.151 46.3769 37.6763 46.5891 38.2188 46.5684C38.4982 46.5715 38.7759 46.5267 39.04 46.4359C39.2914 46.3468 39.5322 46.2303 39.7579 46.0886L40.1272 46.774C39.8409 46.9502 39.5382 47.0986 39.2235 47.2173C38.8614 47.3491 38.4781 47.4134 38.0927 47.407C37.6937 47.4079 37.2985 47.3302 36.9298 47.1785C36.5755 47.0349 36.2553 46.8193 35.9893 46.5456C35.713 46.2559 35.4991 45.913 35.3608 45.5379C35.2007 45.1104 35.1199 44.6575 35.1223 44.2013ZM39.446 43.7329C39.446 43.0992 39.3122 42.6156 39.0446 42.282C38.7712 41.9452 38.3525 41.7592 37.9184 41.7816C37.7018 41.7808 37.4875 41.826 37.2899 41.9141C37.0868 42.005 36.903 42.1337 36.7485 42.2934C36.579 42.4702 36.443 42.6761 36.3471 42.9012C36.2355 43.1654 36.1651 43.4451 36.1384 43.7306L39.446 43.7329Z" fill="#149CB5"/>
<path d="M40.6649 41.0815H41.5234L41.6122 42.1716H41.6509C41.8379 41.8242 42.0979 41.5196 42.4138 41.2781C42.6925 41.0615 43.0375 40.9435 43.393 40.943C43.6179 40.9392 43.8412 40.981 44.0488 41.0658L43.8462 41.9594C43.7551 41.9294 43.6624 41.9048 43.5683 41.8857C43.4639 41.8676 43.3579 41.8594 43.2518 41.8611C42.9527 41.8742 42.6663 41.9833 42.4366 42.1716C42.0967 42.4592 41.8419 42.8311 41.6987 43.2483V47.0996H40.6626L40.6649 41.0815Z" fill="#149CB5"/>
</g>
<defs>
<linearGradient id="paint0_linear_126_12233" x1="32.9791" y1="2.22813" x2="14.6523" y2="38.2261" gradientUnits="userSpaceOnUse">
<stop stop-color="#2B3990"/>
<stop offset="0.16" stop-color="#1E62A7"/>
<stop offset="0.32" stop-color="#1485BC"/>
<stop offset="0.49" stop-color="#0BA1CC"/>
<stop offset="0.66" stop-color="#05B4D7"/>
<stop offset="0.83" stop-color="#01C0DE"/>
<stop offset="1" stop-color="#00C4E0"/>
</linearGradient>
<linearGradient id="paint1_linear_126_12233" x1="-6226.82" y1="17751.7" x2="-3889.79" y2="17751.7" gradientUnits="userSpaceOnUse">
<stop stop-color="#2B3990"/>
<stop offset="0.16" stop-color="#1E62A7"/>
<stop offset="0.32" stop-color="#1485BC"/>
<stop offset="0.49" stop-color="#0BA1CC"/>
<stop offset="0.66" stop-color="#05B4D7"/>
<stop offset="0.83" stop-color="#01C0DE"/>
<stop offset="1" stop-color="#00C4E0"/>
</linearGradient>
<clipPath id="clip0_126_12233">
<rect width="43.0976" height="50" fill="white" transform="translate(0.951172)"/>
</clipPath>
</defs>
</svg>
